lab2/wave.vcd
$date
     Sep 10, 2024       21:52:05
$end

$version
 SystemC 3.0.0-Accellera --- Aug 29 2024 18:54:01
$end

$timescale
     1 ps
$end

$scope module SystemC $end
$var wire    1  aaaaa  Load_XMT_datareg       $end
$var wire    1  aaaab  Byte_ready       $end
$var wire    1  aaaac  T_byte       $end
$var wire    1  aaaad  rst_b       $end
$var wire    8  aaaae  Data_Bus [7:0]  $end
$var wire    1  aaaaf  Serial_out       $end
$var wire    1  aaaag  clk       $end
$upscope $end
$enddefinitions  $end

$comment
All initial values are dumped below at time 0 sec = 0 timescale units.
$end

$dumpvars
0aaaaa
0aaaab
0aaaac
0aaaad
b0 aaaae
1aaaaf
1aaaag
$end

#500
0aaaag

#1000
1aaaag

#1500
0aaaag

#2000
1aaaag

#2500
0aaaag

#3000
1aaaag

#3500
1aaaad
b1000001 aaaae
0aaaag

#4000
1aaaag

#4500
0aaaag

#5000
1aaaag

#5500
1aaaaa
0aaaag

#6000
1aaaag

#6500
0aaaag

#7000
1aaaag

#7500
0aaaaa
0aaaag

#8000
1aaaag

#8500
0aaaag

#9000
1aaaag

#9500
1aaaab
0aaaag

#10000
1aaaag

#10500
0aaaag

#11000
1aaaag

#11500
0aaaab
0aaaag

#12000
1aaaag

#12500
0aaaag

#13000
1aaaag

#13500
1aaaac
0aaaag

#14000
0aaaaf
1aaaag

#14500
0aaaag

#15000
1aaaaf
1aaaag

#15500
0aaaac
0aaaag

#16000
0aaaaf
1aaaag

#16500
0aaaag

#17000
1aaaag

#17500
0aaaag

#18000
1aaaag

#18500
0aaaag

#19000
1aaaag

#19500
0aaaag

#20000
1aaaag

#20500
0aaaag

#21000
1aaaaf
1aaaag

#21500
0aaaag

#22000
0aaaaf
1aaaag

#22500
0aaaag

#23000
1aaaaf
1aaaag

#23500
0aaaag

#24000
1aaaag

#24500
0aaaag

#25000
1aaaag

#25500
0aaaag

#26000
1aaaag

#26500
0aaaag

#27000
1aaaag

#27500
0aaaag

#28000
1aaaag

#28500
0aaaag

#29000
1aaaag

#29500
0aaaag

#30000
1aaaag

#30500
0aaaag

#31000
1aaaag

#31500
0aaaag

#32000
1aaaag

#32500
0aaaag

#33000
1aaaag

#33500
0aaaag

#34000
1aaaag

#34500
0aaaag

#35000
1aaaag

#35500
0aaaag

#36000
1aaaag

#36500
0aaaag

#37000
1aaaag

#37500
b1000010 aaaae
0aaaag

#38000
1aaaag

#38500
0aaaag

#39000
1aaaag

#39500
1aaaaa
0aaaag

#40000
1aaaag

#40500
0aaaag

#41000
1aaaag

#41500
0aaaaa
0aaaag

#42000
1aaaag

#42500
0aaaag

#43000
1aaaag

#43500
1aaaab
0aaaag

#44000
1aaaag

#44500
0aaaag

#45000
1aaaag

#45500
0aaaab
0aaaag

#46000
1aaaag

#46500
0aaaag

#47000
1aaaag

#47500
1aaaac
0aaaag

#48000
0aaaaf
1aaaag

#48500
0aaaag

#49000
1aaaag

#49500
0aaaac
0aaaag

#50000
1aaaaf
1aaaag

#50500
0aaaag

#51000
0aaaaf
1aaaag

#51500
0aaaag

#52000
1aaaag

#52500
0aaaag

#53000
1aaaag

#53500
0aaaag

#54000
1aaaag

#54500
0aaaag

#55000
1aaaaf
1aaaag

#55500
0aaaag

#56000
0aaaaf
1aaaag

#56500
0aaaag

#57000
1aaaaf
1aaaag

#57500
0aaaag

#58000
1aaaag

#58500
0aaaag

#59000
1aaaag

#59500
0aaaag

#60000
1aaaag

#60500
0aaaag

#61000
1aaaag

#61500
0aaaag

#62000
1aaaag

#62500
0aaaag

#63000
1aaaag

#63500
0aaaag

#64000
1aaaag

#64500
0aaaag

#65000
1aaaag

#65500
0aaaag

#66000
1aaaag

#66500
0aaaag

#67000
1aaaag

#67500
0aaaag

#68000
1aaaag

#68500
0aaaag

#69000
1aaaag

#69500
0aaaag

#70000
1aaaag

#70500
0aaaag

#71000
1aaaag

#71500
b1000011 aaaae
0aaaag

#72000
1aaaag

#72500
0aaaag

#73000
1aaaag

#73500
1aaaaa
0aaaag

#74000
1aaaag

#74500
0aaaag

#75000
1aaaag

#75500
0aaaaa
0aaaag

#76000
1aaaag

#76500
0aaaag

#77000
1aaaag

#77500
1aaaab
0aaaag

#78000
1aaaag

#78500
0aaaag

#79000
1aaaag

#79500
0aaaab
0aaaag

#80000
1aaaag

#80500
0aaaag

#81000
1aaaag

#81500
1aaaac
0aaaag

#82000
0aaaaf
1aaaag

#82500
0aaaag

#83000
1aaaaf
1aaaag

#83500
0aaaac
0aaaag

#84000
1aaaag

#84500
0aaaag

#85000
0aaaaf
1aaaag

#85500
0aaaag

#86000
1aaaag

#86500
0aaaag

#87000
1aaaag

#87500
0aaaag

#88000
1aaaag

#88500
0aaaag

#89000
1aaaaf
1aaaag

#89500
0aaaag

#90000
0aaaaf
1aaaag

#90500
0aaaag

#91000
1aaaaf
1aaaag

