lab3/wave.vcd
$date
     Sep 18, 2024       20:40:50
$end

$version
 SystemC 3.0.0-Accellera --- Aug 29 2024 18:54:01
$end

$timescale
     1 ps
$end

$scope module SystemC $end
$var wire    1  aaaaa  rst_b       $end
$var wire    1  aaaab  clk       $end
$var wire    1  aaaac  Load_XMT_datareg       $end
$var wire    1  aaaad  Byte_ready       $end
$var wire    1  aaaae  T_byte       $end
$var wire    8  aaaaf  DataToUART [7:0]  $end
$var wire    1  aaaag  Serial_out       $end
$var wire    8  aaaah  DataToSRAM [7:0]  $end
$var wire    8  aaaai  DataFromSRAM [7:0]  $end
$var wire   18  aaaaj  AddrToSRAM [17:0]  $end
$var wire    1  aaaak  bCE       $end
$var wire    1  aaaal  bWE       $end
$var wire    1  aaaam  BREQ0       $end
$var wire    1  aaaan  BREQ1       $end
$var wire    1  aaaao  BREQ2       $end
$var wire    1  aaaap  BGNT0       $end
$var wire    1  aaaaq  BGNT1       $end
$var wire    1  aaaar  BGNT2       $end
$var wire    8  aaaas  DataBus [7:0]  $end
$var wire   32  aaaat  AddressBus [31:0]  $end
$var wire    1  aaaau  ControlBus       $end
$upscope $end
$enddefinitions  $end

$comment
All initial values are dumped below at time 0 sec = 0 timescale units.
$end

$dumpvars
0aaaaa
1aaaab
0aaaac
0aaaad
0aaaae
bXXXXXXXX aaaaf
1aaaag
bXXXXXXXX aaaah
bXXXXXXXX aaaai
bXXXXXXXXXXXXXXXXXX aaaaj
0aaaak
0aaaal
0aaaam
0aaaan
0aaaao
0aaaap
0aaaaq
0aaaar
bZZZZZZZZ aaaas
bZZZZZZZZZZZZZZZZZZZZZZZZZZZZZZZZ aaaat
Zaaaau
$end

#500
0aaaab

#1000
1aaaab

#1500
0aaaab

#2000
1aaaab

#2500
0aaaab

#3000
1aaaab

#3500
0aaaab

#4000
1aaaab

#4500
0aaaab

#5000
1aaaab

#5500
0aaaab

#6000
1aaaab

#6500
0aaaab

#7000
1aaaab

#7500
0aaaab

#8000
1aaaab

#8500
0aaaab

#9000
1aaaab

#9500
0aaaab

#10000
1aaaab

#10500
0aaaab

#11000
1aaaab

#11500
1aaaaa
0aaaab

#12000
1aaaab

#12500
0aaaab

#13000
1aaaab

#13500
0aaaab

#14000
1aaaab

#14500
0aaaab

#15000
1aaaab

#15500
0aaaab

#16000
1aaaab

#16500
0aaaab

#17000
1aaaab

#17500
0aaaab

#18000
1aaaab

#18500
0aaaab

#19000
1aaaab

#19500
0aaaab

#20000
1aaaab

#20500
0aaaab

#21000
1aaaab

#21500
0aaaab
b0 aaaat

#22000
1aaaab

#22500
0aaaab

#23000
1aaaab

#23500
0aaaab
bZZZZZZZZZZZZZZZZZZZZZZZZZZZZZZZZ aaaat

#24000
1aaaab

#24500
0aaaab

#25000
1aaaab

#25500
0aaaab

#26000
1aaaab

#26500
0aaaab

#27000
1aaaab

#27500
0aaaab

#28000
1aaaab

#28500
0aaaab

#29000
1aaaab

#29500
0aaaab

#30000
1aaaab

#30500
0aaaab

#31000
1aaaab

#31500
0aaaab

#32000
1aaaab

#32500
0aaaab

#33000
1aaaab

#33500
0aaaab
b110000 aaaas
b10000000000000000001000110100 aaaat

#34000
1aaaab
1aaaam
1aaaap

#34500
0aaaab

#35000
1aaaab
0aaaam
0aaaap

#35500
0aaaab

#36000
1aaaab
b110000 aaaah
b1000110100 aaaaj
0aaaau

#36500
0aaaab

#37000
1aaaab

#37500
0aaaab

#38000
1aaaab

#38500
0aaaab

#39000
1aaaab

#39500
0aaaab

#40000
1aaaab

#40500
0aaaab

#41000
1aaaab

#41500
0aaaab

#42000
1aaaab

#42500
0aaaab

#43000
1aaaab

#43500
0aaaab
bZZZZZZZZ aaaas
b0 aaaat

#44000
1aaaab

#44500
0aaaab

#45000
1aaaab
Zaaaau

#45500
0aaaab
bZZZZZZZZZZZZZZZZZZZZZZZZZZZZZZZZ aaaat

#46000
1aaaab

#46500
0aaaab

#47000
1aaaab

#47500
0aaaab

#48000
1aaaab

#48500
0aaaab

#49000
1aaaab

#49500
0aaaab

#50000
1aaaab

#50500
0aaaab

#51000
1aaaab

#51500
0aaaab

#52000
1aaaab

#52500
0aaaab

#53000
1aaaab

#53500
0aaaab

#54000
1aaaab

#54500
0aaaab

#55000
1aaaab

#55500
0aaaab
b10000000001000000001000110100 aaaat

#56000
1aaaab
1aaaam
1aaaap

#56500
0aaaab

#57000
1aaaab
0aaaam
0aaaap

#57500
0aaaab

#58000
1aaaab
b0 aaaah
b110000 aaaai
1aaaal
b110000 aaaas
0aaaau

#58500
0aaaab

#59000
1aaaab
b110000 aaaah

